[api-updater (non-obsolete-error-filter)] 26/4/2022 17:27:30 : Starting C:/Program Files/Unity/Hub/Editor/2020.3.17f1/Editor/Data/Tools/ScriptUpdater/APIUpdater.NonObsoleteApiUpdaterDetector.exe
[api-updater (non-obsolete-error-filter)] 
----------------------------------
jit/startup time      : 293,3731ms
moved types parse time: 48ms
candidates parse time : 1ms
C# parse time         : 628ms
candidates check time : 42ms
console write time    : 0ms

[api-updater (non-obsolete-error-filter)] 26/4/2022 17:32:05 : Starting C:/Program Files/Unity/Hub/Editor/2020.3.17f1/Editor/Data/Tools/ScriptUpdater/APIUpdater.NonObsoleteApiUpdaterDetector.exe
[api-updater (non-obsolete-error-filter)] 
----------------------------------
jit/startup time      : 70,8097ms
moved types parse time: 46ms
candidates parse time : 1ms
C# parse time         : 186ms
candidates check time : 44ms
console write time    : 0ms

[api-updater (non-obsolete-error-filter)] 26/4/2022 17:43:54 : Starting C:/Program Files/Unity/Hub/Editor/2020.3.17f1/Editor/Data/Tools/ScriptUpdater/APIUpdater.NonObsoleteApiUpdaterDetector.exe
[api-updater (non-obsolete-error-filter)] 
----------------------------------
jit/startup time      : 74,8096ms
moved types parse time: 60ms
candidates parse time : 1ms
C# parse time         : 200ms
candidates check time : 45ms
console write time    : 0ms

[api-updater (non-obsolete-error-filter)] 26/4/2022 17:44:17 : Starting C:/Program Files/Unity/Hub/Editor/2020.3.17f1/Editor/Data/Tools/ScriptUpdater/APIUpdater.NonObsoleteApiUpdaterDetector.exe
[api-updater (non-obsolete-error-filter)] 
----------------------------------
jit/startup time      : 69,8422ms
moved types parse time: 46ms
candidates parse time : 1ms
C# parse time         : 190ms
candidates check time : 44ms
console write time    : 0ms

[api-updater (non-obsolete-error-filter)] 26/4/2022 17:45:36 : Starting C:/Program Files/Unity/Hub/Editor/2020.3.17f1/Editor/Data/Tools/ScriptUpdater/APIUpdater.NonObsoleteApiUpdaterDetector.exe
[api-updater (non-obsolete-error-filter)] 
----------------------------------
jit/startup time      : 75,6761ms
moved types parse time: 45ms
candidates parse time : 1ms
C# parse time         : 188ms
candidates check time : 43ms
console write time    : 0ms

[api-updater (non-obsolete-error-filter)] 26/4/2022 16:46:04 : Starting C:/Program Files/Unity/Hub/Editor/2020.3.17f1/Editor/Data/Tools/ScriptUpdater/APIUpdater.NonObsoleteApiUpdaterDetector.exe
[api-updater (non-obsolete-error-filter)] 
----------------------------------
jit/startup time      : 72,8026ms
moved types parse time: 47ms
candidates parse time : 1ms
C# parse time         : 189ms
candidates check time : 51ms
console write time    : 0ms

[api-updater (non-obsolete-error-filter)] 26/4/2022 16:46:42 : Starting C:/Program Files/Unity/Hub/Editor/2020.3.17f1/Editor/Data/Tools/ScriptUpdater/APIUpdater.NonObsoleteApiUpdaterDetector.exe
[api-updater (non-obsolete-error-filter)] 
----------------------------------
jit/startup time      : 69,4098ms
moved types parse time: 47ms
candidates parse time : 1ms
C# parse time         : 190ms
candidates check time : 45ms
console write time    : 0ms

[api-updater (non-obsolete-error-filter)] 26/4/2022 16:49:11 : Starting C:/Program Files/Unity/Hub/Editor/2020.3.17f1/Editor/Data/Tools/ScriptUpdater/APIUpdater.NonObsoleteApiUpdaterDetector.exe
[api-updater (non-obsolete-error-filter)] 
----------------------------------
jit/startup time      : 76,7015ms
moved types parse time: 45ms
candidates parse time : 1ms
C# parse time         : 204ms
candidates check time : 60ms
console write time    : 0ms

